…
#### Annual Name Count and Total Babies

``` r
df %>%
  group_by(year) %>%
  reframe(name_count = n(),
          total_babies=sum(total)) %>%
  arrange(year)
```

    ## # A tibble: 140 × 3
    ##     year name_count total_babies
    ##    <int>      <int>        <int>
    ##  1  1880       2000       201484
    ##  2  1881       1935       192696
    ##  3  1882       2127       221533
    ##  4  1883       2084       216944
    ##  5  1884       2297       243461
    ##  6  1885       2294       240854
    ##  7  1886       2392       255317
    ##  8  1887       2373       247394
    ##  9  1888       2651       299473
    ## 10  1889       2590       288946
    ## # ℹ 130 more rows
…
#### Top 10 Names of 1880 & 2019 by Total

``` r
df %>%
  filter( (year == '1880') | (year == '2019')) %>%
  group_by(year, gender, name) %>%
  reframe(total_babies = sum(total)) %>%
  arrange(year, gender, desc(total_babies)) %>%
  group_by(year, gender) %>%
  slice(1:10)
```

    ## # A tibble: 40 × 4
    ## # Groups:   year, gender [4]
    ##     year gender name      total_babies
    ##    <int> <chr>  <chr>            <int>
    ##  1  1880 F      Mary              7065
    ##  2  1880 F      Anna              2604
    ##  3  1880 F      Emma              2003
    ##  4  1880 F      Elizabeth         1939
    ##  5  1880 F      Minnie            1746
    ##  6  1880 F      Margaret          1578
    ##  7  1880 F      Ida               1472
    ##  8  1880 F      Alice             1414
    ##  9  1880 F      Bertha            1320
    ## 10  1880 F      Sarah             1288
    ## # ℹ 30 more rows
…
